{
    "version": "https://jsonfeed.org/version/1",
    "title": "Disability Insurance",
    "description": "",
    "home_page_url": "https://automaniacmrk.gitlab.io/disabilityinsurance",
    "feed_url": "https://automaniacmrk.gitlab.io/disabilityinsurance/feed.json",
    "user_comment": "",
    "author": {
        "name": "Agent"
    },
    "items": [
        {
            "id": "https://automaniacmrk.gitlab.io/disabilityinsurance/disability-insurance-plans.html",
            "url": "https://automaniacmrk.gitlab.io/disabilityinsurance/disability-insurance-plans.html",
            "title": "Disability Insurance Plans",
            "summary": "Your age at December 31st is the date you receive your benefit. Also, your annual base salary according to Alameda County’s payroll system will be used. For any questions please call 1-800-665-3365. Social Security pays disability benefits to people who cannot work because of a&hellip;",
            "content_html": "<p><img loading=\"lazy\" src=\"https://www.aspenwealthmgmt.com/wp-content/uploads/2020/05/7689df5c-a034-4c62-808b-4f06c76a8b64.png\" data-is-external-image=\"true\"  alt=\"Disability Insurance\" data-cke-saved-src=\" https://www.aspenwealthmgmt.com/wp-content/uploads/2020/05/7689df5c-a034-4c62-808b-4f06c76a8b64.png\"></p>\n<h2>Disability Insurance Plans</h2>\n<p>Your age at December 31st is the date you receive your benefit. Also, your annual base salary according to Alameda County’s payroll system will be used.</p>\n<p>For any questions please call 1-800-665-3365.</p>\n<h2>Social Security Benefits</h2>\n<p>Social Security pays disability benefits to people who cannot work because of a medical condition that is expected to last at least one year or is terminal, and for individuals who meet two earnings tests. It can take up to six months for the processing of your application. The SSA bases benefits on average lifetime earnings. Unlike with a long-term disability insurance policy, family members may also be eligible for Social Security benefits. You should be aware that receiving Social Security benefits may affect how much you receive under a long term disability insurance policy.</p>\n<p><img loading=\"lazy\" src=\"https://www.desertmountaininsurance.com/wp-content/uploads/2020/11/dis-benefits1.jpg\" data-is-external-image=\"true\"  alt=\"Disability Insurance\" data-cke-saved-src=\" https://www.desertmountaininsurance.com/wp-content/uploads/2020/11/dis-benefits1.jpg\"></p>\n<h2>Your annual income</h2>\n<p><a href=\"https://www.chamberplan.ca/product/group-benefits/disability-insurance\">Disability insurance benefits</a> are based on a percentage of your income. The more you earn, the more benefits you will be able to collect if you become disabled. Insurance companies are more likely to take on high-income workers because they pose a higher financial risk.</p>\n<h2>You are the location</h2>\n<p>Your risk of being disabled can be affected by where you live. The regulations and claims history of your state, as well as living expenses, are all factors insurance companies will consider.</p>\n<p><img loading=\"lazy\" src=\"https://www.insurancecentermo.com/wp-content/uploads/2021/09/disability-insurance.jpg\" data-is-external-image=\"true\"  alt=\"Disability Insurance\" data-cke-saved-src=\" https://www.insurancecentermo.com/wp-content/uploads/2021/09/disability-insurance.jpg\"></p>\n<h2>Va Disability Compensation Benefits</h2>\n<ul>\n<li>Which conditions qualify you for benefits</li>\n</ul>\n<ul>\n<li>What conditions are required to be eligible for benefits?</li>\n</ul>\n<p>What conditions are required to be eligible for benefits?</p>\n<ul>\n<li>What the claim process looks like</li>\n</ul>\n<ul>\n<li>What the claim process looks like</li>\n</ul>\n<p>How the claims process works</p>\n<p>Survivors of veterans may receive compensation benefits in certain situations.</p>",
            "author": {
                "name": "Agent"
            },
            "tags": [
            ],
            "date_published": "2022-06-24T07:42:24-07:00",
            "date_modified": "2022-07-05T06:46:23-07:00"
        },
        {
            "id": "https://automaniacmrk.gitlab.io/disabilityinsurance/how-to-choose-the-best-disability-insurance-company.html",
            "url": "https://automaniacmrk.gitlab.io/disabilityinsurance/how-to-choose-the-best-disability-insurance-company.html",
            "title": "How to Choose the Best Disability Insurance Company",
            "summary": "The best disability insurance company for you largely depends on the policy costs and your individual situation, including your occupation. Some insurance companies are better for certain professions than others, offering the best prices or most flexible options, while others may not offer you affordable&hellip;",
            "content_html": "<p><img loading=\"lazy\" src=\"https://www.regions.com/-/media/Images/Insights/Pano-Images/Personal/P-PF-IPAP-how-does-disability-insurance-work-Hero.jpg?revision=bbc38a3a-e2a6-41c0-85b6-f46049af33d1\" data-is-external-image=\"true\"  alt=\"Disability Insurance\" data-cke-saved-src=\" https://www.regions.com/-/media/Images/Insights/Pano-Images/Personal/P-PF-IPAP-how-does-disability-insurance-work-Hero.jpg?revision=bbc38a3a-e2a6-41c0-85b6-f46049af33d1\"></p>\n<h2>How to Choose the Best Disability Insurance Company</h2>\n<p>The <a href=\"https://www.chamberplan.ca/product/group-benefits/disability-insurance\">best disability insurance company</a> for you largely depends on the policy costs and your individual situation, including your occupation. Some insurance companies are better for certain professions than others, offering the best prices or most flexible options, while others may not offer you affordable rates.</p>\n<p>Getting disability quotes from multiple companies is the best way to find the right insurer who will offer you the most affordable rates -- and when it comes to getting you the best coverage, Policygenius has got your back. Our agents will work with you for free to find you a disability policy that suits your needs at the most competitive price.</p>\n<h2>How Much Does Disability Insurance Cost?</h2>\n<ul>\n<li>Age The older you are, the more expensive your policy will be. You can expect to pay more than someone who bought it at a younger age.</li>\n</ul>\n<p>Your age will determine how expensive your policy. It is possible to expect to pay higher than the price for someone who purchased it younger.</p>\n<ul>\n<li>Gender Based on claims data, women are more susceptible to a disability and make more disability claims. Because of this, women pay more.</li>\n</ul>\n<p>Gender Based on claims data, women are more susceptible to a disability and make more disability claims. Women pay less because of this.</p>\n<ul>\n<li>Smoking history Smokers or recent smokers pay higher premiums.</li>\n</ul>\n<p>Premiums are higher for smokers who have smoked in the past or those who smoke regularly.</p>\n<ul>\n<li>State of residence Residents of states with a higher number of disability claims will pay more for coverage.</li>\n</ul>\n<p>The state of residency Residents in states that have more disability claims are likely to pay higher for coverage.</p>\n<ul>\n<li>Your occupation class is determined by the elements you do in your job, including travel and manual work, so your insurance policy may pay less.</li>\n</ul>\n<p>Your occupation class is determined by the elements you do in your job, including travel and manual work, so your insurance policy may pay less.</p>\n<p>Costs also depend on certain policy factors:</p>\n<ul>\n<li>Your insurer will pay you money if you are disabled. Premiums will be higher if you have greater coverage.</li>\n</ul>\n<p>Coverage amount The amount of money your insurer pays to you if you become disabled. Premiums will be higher if you have greater coverage.</p>\n<ul>\n<li>Duration of benefit payment. Premiums will be higher if you have longer benefit periods. The most cost-effective benefit period is five years, but a benefit period that extends to age 65 is the most common.</li>\n</ul>\n<p>Benefit period The amount of time you will receive benefit payments. Premiums will be higher if you have longer benefit periods. Five years is the best benefit duration, while a benefit period of up to 65 years is most popular.</p>\n<ul>\n<li>Elimination period How long after you become disabled before you begin receiving benefits. Longer elimination periods result in lower premiums. A 90-day elimination period is the most economical.</li>\n</ul>\n<p>Elimination period How long after you become disabled before you begin receiving benefits. Longer elimination periods result in lower premiums. A 90-day elimination period is the most economical.</p>\n<ul>\n<li>A few features that are built-in to the policy, such as own-occupation coverage, may raise the price of your policy.</li>\n</ul>\n<p>Built-in features in the policy Some features, such as own-occupation coverage, may raise the price of your policy.</p>\n<ul>\n<li>Riders If you add on additional features that aren't included in your policy, you will pay higher premiums.</li>\n</ul>\n<p>Riders You will be charged more for additional coverages that you don't have.</p>",
            "author": {
                "name": "Agent"
            },
            "tags": [
            ],
            "date_published": "2022-06-24T07:41:18-07:00",
            "date_modified": "2022-07-03T20:49:21-07:00"
        },
        {
            "id": "https://automaniacmrk.gitlab.io/disabilityinsurance/state-disability-insurance.html",
            "url": "https://automaniacmrk.gitlab.io/disabilityinsurance/state-disability-insurance.html",
            "title": "State Disability Insurance",
            "summary": "California State Disability Insurance is an insurance program that partially replaces workers' wages. SDI is a state-mandated program that's funded by payroll deductions. SDI provides short-term benefits to eligible workers who suffer a loss of wages when they are unable to work due to a&hellip;",
            "content_html": "<p><img loading=\"lazy\" src=\"https://disabilitylawneworleans.com/wp-content/uploads/2019/12/Disability-Insurance-Concept.jpg\" data-is-external-image=\"true\"  alt=\"Disability Insurance\" data-cke-saved-src=\" https://disabilitylawneworleans.com/wp-content/uploads/2019/12/Disability-Insurance-Concept.jpg\"></p>\n<h2>State Disability Insurance</h2>\n<p>California State Disability Insurance is an insurance program that partially replaces workers' wages. SDI is a state-mandated program that's funded by payroll deductions. SDI provides short-term benefits to eligible workers who suffer a loss of wages when they are unable to work due to a non work-related illness or injury, or a medically disabling condition from pregnancy or childbirth.</p>\n<p>SDI can pay benefits up to 52 weeks with only seven-day waiting periods. All payments are made in coordination with your <a href=\"https://www.chamberplan.ca/product/group-benefits/disability-insurance\">voluntary disability insurance</a>.</p>\n<p>All covered workers have the same rate of contribution, so payroll deductions are automatically deducted from their pay.</p>\n<p>For more information regarding California State Disability Insurance (SDI), visit the California Employment Development Departments Web site and follow the links to \"Disability Insurance.\"</p>\n<p>To file a claim, contact the EDD or download a claim form from the EDD Website.</p>",
            "author": {
                "name": "Agent"
            },
            "tags": [
            ],
            "date_published": "2022-06-24T07:40:31-07:00",
            "date_modified": "2022-07-04T19:07:10-07:00"
        },
        {
            "id": "https://automaniacmrk.gitlab.io/disabilityinsurance/are-the-social-security-definitions-of-disability-insurance-out-of-date.html",
            "url": "https://automaniacmrk.gitlab.io/disabilityinsurance/are-the-social-security-definitions-of-disability-insurance-out-of-date.html",
            "title": "Are the Social Security Definitions of Disability Insurance out-of-date?",
            "summary": "Are the Social Security Definitions of Disability Insurance out-of-date? Social Security Advisory Board asked whether there should be a fundamental change in the definition of disability as defined by Social Security. The Academy's Disability Policy Panel studied this question at length and reached the following&hellip;",
            "content_html": "<h1><img loading=\"lazy\" src=\"https://www.finder.com/niche-builder/5d72688996862.png\" data-is-external-image=\"true\"  alt=\"Disability Insurance\" data-cke-saved-src=\" https://www.finder.com/niche-builder/5d72688996862.png\"></h1>\n<h2>Are the Social Security Definitions of Disability Insurance out-of-date?</h2>\n<p>Social Security Advisory Board asked whether there should be a fundamental change in the definition of disability as defined by Social Security. The Academy's Disability Policy Panel studied this question at length and reached the following conclusions:</p>\n<p>Programs for people with disabilities should use definitions of disability as eligibility criteria that match the purpose of the program. A single, one-size-fits-all definition would not suit the varied needs of the highly diverse population of people with disabilities, nor would it match the particular purposes of different programs.</p>\n<p>If the purpose of the program is to establish civil rights protections, a broad definition of disability, such as in the ADA is used: \"Disability means ... a physical or mental impairment that substantially limits one or more major life activities, a record of such an impairment, or being regarded as having such an impairment.\"</p>\n<p>If the purpose is to define eligibility for vocational rehabilitation, then the legal definition of eligibility is based on need for and likelihood of benefiting from such services.</p>\n<p>In order to be eligible for programs that offer long-term or personal care, one must have a need.</p>\n<p>Earnings-replacement insurance programs that are designed to replace income from employment all use a definition of disability based on loss of ability to work. This is true in <a href=\"https://www.chamberplan.ca/product/group-benefits/disability-insurance\">private disability insurance</a>, as well as in public programs. Wage-replacement benefits in disability insurance do not cover additional expenses related to disability, such as vocational rehabilitation or personal assistance. Although these services might be needed, wage replacement benefits are designed to help pay everyday living expenses - such as food, housing, and utilities - when wages are lost.</p>\n<p>The Social Security test of work disability is very strict. Partial disabled people would be able to use a less stringent test for inability of work, but it would also cost more.</p>\n<h2>The Documents That You Must Provide</h2>\n<p>Along with the information listed above, we may ask you to provide documents to show that you are eligible, such as:</p>\n<ul>\n<li>Other proof of birth or birth certificate</li>\n<li>If you are not U.S. citizen or lawful alien, proof of U.S. citizenship is required.</li>\n<li>If you served in the military before 1968, U.S. Military discharge papers(s) are available.</li>\n<li>W-2 forms(s) and/or self-employment tax returns for last year.</li>\n<li>Medical evidence already in your possession. These include medical records, doctor's reports and test results.</li>\n<li>You can provide proof by sending us award letters, pay slips, settlement agreements or any other evidence of temporary or permanent worker's compensation benefits.</li>\n</ul>\n<p>While we accept photoscopies of W-2 forms and self-employment tax returns or other medical documents, we require the original of all documents such as birth certificates. We will send them back to you.</p>\n<p>Don't delay in applying for benefits if you don't have all of the documentation. They will be yours.</p>",
            "author": {
                "name": "Agent"
            },
            "tags": [
            ],
            "date_published": "2022-06-24T07:40:05-07:00",
            "date_modified": "2022-07-04T08:07:16-07:00"
        },
        {
            "id": "https://automaniacmrk.gitlab.io/disabilityinsurance/disability-insurance.html",
            "url": "https://automaniacmrk.gitlab.io/disabilityinsurance/disability-insurance.html",
            "title": "Disability Insurance",
            "summary": "Disability Insurance Policyholders with long-term disability insurance Register Waiting period What is considered a disability? LTD Insurance purchased by employees can be canceled or modified Make a LTD claim End of LTD benefits If you're currently healthy, disability insurance may seem unnecessary. Becoming disabled, however,&hellip;",
            "content_html": "<h1>Disability Insurance</h1>\n<h2><img loading=\"lazy\" src=\"https://www.buchanandisability.com/wp-content/uploads/cali-disability-infographic.jpg\" data-is-external-image=\"true\"  alt=\"Disability Insurance\" width=\"80%\" height=\"auto\"></h2>\n<h2>Policyholders with long-term disability insurance</h2>\n<p>Register</p>\n<p>Waiting period</p>\n<p>What is considered a disability?</p>\n<p>LTD Insurance purchased by employees can be canceled or modified</p>\n<p>Make a LTD claim</p>\n<p>End of LTD benefits</p>\n<p>If you're currently healthy, disability insurance may seem unnecessary. Becoming disabled, however, is more common than you might think -- the Social Security Administration estimates that just over one in four people will become disabled at some point before reaching age 67.</p>\n<p>Everyone wants to be able to work without being disabled. Should this happen, long-term disability (LTD) insurance protects you and your family by paying you a portion of your income until you can get back to work.</p>\n<p>While enrolling in LTD insurance is automatic, understanding how it works can be tricky. Use these pages as a guide to your LTD benefits, and contact us if you need further help.</p>\n<h2>There are two types of disability policies: short-term disability (Std), and long-term disability (Ltd).</h2>\n<p>Two types of protection are available in disability policies that you need to be aware of:</p>\n<ul>\n<li>The policy is noncancelable, which means that the company cannot cancel it. This gives you the right to renew the policy every year without an increase in the premium or a reduction in benefits.</li>\n<li>Guaranteed renewable gives you the right to renew the policy with the same benefits and not have the policy canceled by the company. Your insurer can increase your premiums if it feels the need to for other policyholders of the same rating as you.</li>\n</ul>\n<h2><img loading=\"lazy\" src=\"https://lsminsurance.ca/images/main_photo-2.png\" data-is-external-image=\"true\"  alt=\"Disability Insurance\" width=\"80%\" height=\"auto\"></h2>\n<h2>How Disability Policies Are Offered</h2>\n<p>Disability insurance can be purchased on an individual or group basis.</p>\n<p>The benefits of disability insurance policies may be taxed or exempted depending on the person who purchased them.</p>\n<p>The insured's gender, age, occupational classification, and monthly benefits are all factors that affect the premium rate. As a general rule, the younger the policy owner is, the lower the cost of insurance premiums.</p>\n<p>Premium rates will be affected by how a company assigns an occupational category to a particular medical specialty. The policy provisions will also impact premium rates.</p>\n<p>What coverage do you need?</p>\n<p>When deciding how much disability insurance you should purchase, the total coverage of your policies is not always accurate. You need to understand how taxes will affect the payments so that the income you lose if you become disabled can be replaced by the insurance you buy.</p>\n<h2>Who is eligible for Di benefits?</h2>\n<p>Social Security's disability test is extremely strict. To be eligible for disability benefits, the Social Security law says that the applicant must be \"unable to engage in any substantial gainful activity by reason of any medically determinable physical or mental impairment which can be expected to result in death or which has lasted or is expected to last for a continuous period of at least 12 months.\" Furthermore, the impairment or combination of impairments must be of such severity that the applicant is not only unable to do his or her previous work but cannot, considering his or her age, education, and work experience, engage in any other kind of substantial gainful work which exists in the national economy (Social Security Act, section 223(d)).</p>\n<p>State agencies, operating under federal guidelines, make the medical and vocational determinations for the Social Security Administration about whether applicants meet the test of disability in the law. The determination is based on medical records and work history as well as the applicant's education and age.</p>\n<h2><img loading=\"lazy\" src=\"https://lsminsurance.ca/images/main_photo-2.png\" data-is-external-image=\"true\"  alt=\"Disability Insurance\" width=\"80%\" height=\"auto\"></h2>\n<h2>Are Di and the Americans with Disabilities Act out of sync?</h2>\n<p>The Americans with Disabilities Act (ADA) does not eliminate the need for a wage-replacement program for disabled workers. A program like this cannot be eliminated due to advances in medicine or changes in job requirements, assistive technology, and other accommodations. Some individuals with disabilities may be able to take advantage of these developments and find employment. For example, the ADA expands opportunity for people who have highly valued skills whose main impediments to work had been based on discrimination, architectural barriers, or other impediments that the ADA alleviates. As the demands and work environment change, other people may find it more difficult to get work. People with mental disabilities may have difficulty finding employment in an ever-competitive world. For instance, the emphasis on speed and versatility could hinder their chances of getting hired. Because the phenomenon of work disability will remain with us in a competitive economy, wage replacement programs remain essential.\"</p>\n<h2>Plan Summary</h2>\n<p>Please see the Prudential Voluntary Supplemental LTD Plan Brochure or Prudential Long Term Disability Insurance Certificate for detailed information. This Plan is described in the TPA Disclosure Notice.</p>\n<p>Prudential offers a University LTD plan as an addition to the SURS disability benefits. Enrolling in the University LTD plan will provide coverage during your first two years, as well as enhanced coverage beyond the SURS benefit alone (after two years) if you become unable to work due to sickness or injury.</p>\n<p>If you are eligible, the plan will guarantee coverage if your enrollment occurs within 60 days. You can apply for coverage after the 60-day period of employment if you provide Prudential with satisfactory evidence of your good health.</p>\n<p>Coverage effective date:</p>\n<ul>\n<li>If you enroll within 60 days of active employment, working at least 18.75 hours per week, coverage is effective the first day of the month following the date you apply for coverage.</li>\n<li>You must show proof of good health if you are enrolled after 60 days of work, at least 18.75 hour per week. Coverage begins on the 1st day of each month, following Prudential approval.</li>\n</ul>\n<p>A preexisting condition limitation is applicable for the first two years of coverage. For more information, please refer to the LTD plan certificate.</p>\n<p>Your LTD benefit becomes payable after you have been approved for coverage and continuously disabled through the elimination period, which is the greater of 90 days or the exhaustion of accumulated sick leave following accidental injury, sickness, or pregnancy. If your disability is for less than 30 days, Prudential will consider your disability continuous. Your elimination period does not include days you aren't disabled.</p>\n<p>Any other benefits, such as those offered by SURS, can offset any benefit. Your maximum monthly benefit is 66 2/3% of monthly base pre-disability earnings, up to a maximum monthly benefit of $12,000. Benefits may be adjusted based on the following:</p>\n<ul>\n<li>When you are receiving a SURS disability benefit, this plan will pay 16 2/3% so that your total benefit remains 66 2/3%.</li>\n<li>This plan will pay an additional 10% (up to $1,000) monthly if your disability is caused by a covered critical illness.</li>\n<li>If you have a severe cognitive impairment or a loss of two of your daily activities, this plan will cover 20% additional monthly (maximum $12,000)</li>\n</ul>\n<p>If you are on a temporary layoff or leave of absence, and if you pay your premium, then you can remain covered to the end of 12 months following the month in which your temporary layoff or leave of absence began.</p>\n<p>Only this policy offers disability income insurance. It does NOT provide basic hospital, basic medical, or major medical insurance as defined by the New York State Department of Financial Services.</p>\n<p>North Carolina Residents: THIS IS NOT A MEDICARE SUPPLEMENT PLAN. If you are eligible for Medicare, review the Guide to Health Insurance for People with Medicare, which is available from the company.</p>\n<p>Group Insurance coverage is issued by The Prudential Insurance Company of America, a Prudential Financial company, Newark, NJ. The Booklet-Certificate contains all details, including any policy exclusions, limitations, and restrictions, which may apply. Contract Series: 83500 1026846-00001-00</p>\n<h2><img loading=\"lazy\" src=\"https://www.greatnorthinsuranceservices.com/wp-content/uploads/2020/08/DisabilityInsurance.png\" data-is-external-image=\"true\"  alt=\"Disability Insurance\" width=\"80%\" height=\"auto\"></h2>\n<h2>4 Questions To Ask Yourself</h2>\n<p>Hoffman recommends these questions to help you think about long-term disability insurance.</p>\n<p>1. What percentage of your income would it be necessary to replace if you were disabled?</p>\n<p>Use the answer to determine the monthly benefit to select.</p>\n<p>2. What time could it take for the disability benefits to kick in?</p>\n<p>The \"elimination time\" is the amount of time you have to wait before the policy pays out. A typical elimination period is 90 days, but you can choose shorter or longer periods. The longer the elimination period, the lower the insurance price.</p>\n<p>3. What length would you like the benefits to continue?</p>\n<p>Hoffman states that benefits for certain occupations like plumbers or carpenters are only available up to five years. For desk jobs, you can choose a benefit period to last a certain number of years or up to a certain age, such as 65. You will pay more for a policy if the benefit period is longer.</p>\n<p>4. How broadly would you define \"disability\"?</p>\n<p>Highly skilled people who have invested a lot of money in training may want a policy that pays out if they can't work in their specialty. A neurosurgeon who loses the ability to operate might still be able to teach or work as a general practitioner, for instance, but those positions would pay far less than a career as a surgeon. Consider another option: Would you like a policy to pay a percentage of your benefits for partial disability, so you can only work part-time? Hoffman suggests this because those with disabilities often have to reduce their work hours as their health deteriorates or as they heal from injuries or illnesses.</p>\n<p>Tinker offers the benefit of being able to reduce the cost of a purchase if it is not too expensive. Hoffman recommends:</p>\n<ul>\n<li>Start by increasing the waiting period before benefits kick in</li>\n</ul>\n<p>Begin by raising the wait period until benefits start.</p>\n<ul>\n<li>Reduce the payout period</li>\n</ul>\n<p>Reduce the payout period</p>\n<ul>\n<li>As a last resort, reduce the monthly benefit amount</li>\n</ul>\n<p>As a last resort, reduce the monthly benefit amount</p>\n<h2>Understanding Recovery Benefits</h2>\n<p>Take the case of a doctor in a small practice who's income depends on how many patients he sees and the amount of business they generate. After being totally disabled for one year, she is now back in the small-group practice. She can now perform all of her job duties and work the same number of hours as before. But, patients that had relied upon her for their care have moved on. Referral sources, with which she had established relationships, had no other choice than to refer her clients.</p>\n<p>It can take many years to rebuild a practice. Without a recovery benefit, the physician in this example would no longer qualify to collect any benefits at all. With an unlimited recovery benefit, the physician would continue to receive benefits until her income reached a level close to her pre-disability income. For a self-employed individual, this can mean the difference between surviving financially or not.</p>\n<h2><img loading=\"lazy\" src=\"https://grantsmith.com/wp-content/uploads/disability-insurance.jpg\" data-is-external-image=\"true\"  alt=\"Disability Insurance\" width=\"80%\" height=\"auto\"></h2>\n<h2>Regaining Employees' Feet and Back to Work</h2>\n<p>The road back to work from a disability can be difficult, for you and your employee. To make this journey more enjoyable for both you and your employee, we are here to help.</p>\n<p>The Return-to-Work ResourcesSM Program offers the following:</p>\n<ul>\n<li>Personal rehabilitation plans: Outlines an individualized plan for the disabled employee with input from the employee, physician and employer.</li>\n<li>Work incentives: Provides disabled employees with additional benefits if they return to work part time.</li>\n<li>Rehabilitation incentives: This increases the percentage of benefits for employees with disabilities who consent to take part in rehabilitation programs.</li>\n<li>Reasonable accommodation benefits: Reimburses you for expenses used to modify the worksite to allow a disabled employee to return to work.</li>\n</ul>\n<h2>Compare Disability Policy Comparisons</h2>\n<p>Here are some benefits and definitions to consider when looking at long-term disability policies.</p>\n<ul>\n<li>Definition of Disability – The definition of disability can vary between policies. Some may pay benefits if you are unable to perform the duties of your occupation, while others may require that your disability keep you from performing the tasks of any gainful employment.</li>\n<li>Extent of Disability - Some policies may require you be totally disabled before it pays benefits, while others may pay a limited amount or for a limited time if your injury limits you to performing only part of your job - often called partially disabled.</li>\n<li>Disabilities Covered - The list of covered accidents or illnesses considered disabilities under the policy will vary. Certain policies only provide coverage for disability that results from an accident, not sickness.</li>\n<li>The Residual Benefit (s) - If you're partially disabled or your income has been reduced due to your inability to perform your job responsibilities, this coverage will fill in the gap. This may be included in your policy or can be added as a rider.</li>\n<li>Amount of Benefits - A typical disability policy benefit is approximately 60 percent of earned income pre-disability. Benefits are generally based on your income at the time the policy is purchased. Other sources of disability support, such as Social Security Disability payments or employer-long-term disability insurance can affect the percentage benefits.</li>\n<li>The waiting period - Also known as the elimination period. You have the option of how long you want to wait before you receive your benefits after you become disabled. Premiums for policies with longer waiting periods are generally lower. You may have to wait for your first benefit payment up to 30 days.</li>\n<li>Length of Coverage - You will generally have an option of benefit terms ranging from one year to retirement age. Choosing a shorter time period likely will make a premium lower, but also means that benefits could run out while you are still disabled.</li>\n<li>Inflation Protection - Not all policies will take inflation into consideration when calculating your benefit payout. A cost-of-living adjustment (COLA) may be an option for an additional premium. This rider can increase benefit payouts by a specific percentage, generally between 4-10 percent, each year. You may be able to buy additional coverage to meet annual promotions or raises since you benefit payments will not automatically increase with income.</li>\n<li>Waiver Of Premium - The waiver allows you to avoid paying premiums for the first 90 days after your disability has ended. It is typically included in a policy.</li>\n<li>Long-term disability insurance policies usually include one or two renewal provisions. Non-cancelable policies are guaranteed to renew the policy automatically. However, the premium could increase. You may see terms such as \"conditionally renewable\" or \"optionally renewable\" in policies. For both of these options, the policy can be cancelled for a group of individuals in a common underwriting \"class,\" by geographic location, or for other reasons stated in the policy. Generally the insurance company sends notification prior to a policy renewal date if the policy will be cancelled for one of these reasons.</li>\n<li>Tax considerations - In general, if you have an individual disability policy, payments received from the policy are income tax-free. If the payments come from a group policy that an employer pays some or all of the premiums on, a portion of the benefit may be taxable.</li>\n</ul>\n<h2><img loading=\"lazy\" src=\"https://www.sdtplanning.com/hs-fs/hubfs/Disability%20Insurance%20Infographic.png?width=1648&amp;name=Disability%20Insurance%20Infographic.png\" data-is-external-image=\"true\"  alt=\"Disability Insurance\" width=\"80%\" height=\"auto\"></h2>\n<h2>More Information about Your Work</h2>\n<ul>\n<li>Name and address of employer for the current year as well as last year.</li>\n<li>You can find the beginning and end dates for any U.S. active military service that you have had prior to 1968.</li>\n<li>You can list all the jobs you held in the last 15 years, up to five at a time. Also note the dates and times you were employed.</li>\n<li>Be temporary or permanent.</li>\n<li>Incorporate annuities or lump sum payments you have received in the past.</li>\n<li>Be paid by your employer or your employer's insurance carrier, private agencies, or Federal, State, or other government or public agencies.</li>\n<li>Workers' Compensation.</li>\n<li>Black Lung Benefits.</li>\n<li>For Harbor and Longshore Workers, Compensation.</li>\n<li>Civil Service Disability Retirement</li>\n<li>Federal Employees' Retirement.</li>\n<li>Federal Employees' Compensation.</li>\n<li>Benefits of disability insurance provided by the state or local governments</li>\n<li>Military disability benefits (This covers military pensions and military retirement pensions that are based on disability, but it does not include Veterans Administration (VA) benefits.</li>\n</ul>\n<h2>Workers Compensation Insurance</h2>\n<p>Workers' compensation does not qualify as disability insurance. Employers pay for it as accident insurance. But because itas so commonly confused with disability insurance, we make sure to set the straight record straight any time we can.</p>\n<p>Under workersa compensation insurance, you may receive benefits to cover medical bills or rehabilitation costs if you become injured or ill on the job. Workers' comp covers partial lost wages if you miss work. Some policies will provide death benefits if youare killed on the job.</p>\n<p>Unlike the other types of coverage we've discussed so far, workers' comp only applies if you become sick or hurt while performing the duties of your job. Only 1% of American workers were absent from work in the past year due to occupational injuries or illnesses, according to the Bureau of Labor Statistics. To protect your income, however, workers' compensation should not be relied upon.</p>\n<h2><img loading=\"lazy\" src=\"https://www.hq-law.com/wp-content/uploads/2013/02/STDIversusLTDI.png\" data-is-external-image=\"true\"  alt=\"Disability Insurance\" width=\"80%\" height=\"auto\"></h2>\n<h2>State Disability Insurance</h2>\n<p>California State Disability Insurance is an insurance program that partially replaces workers' wages. SDI is a state-mandated program that's funded by payroll deductions. Eligible workers can receive short-term benefits from SDI if they lose their wages due to an injury or illness that is not work-related, as well as a condition that was caused by pregnancy or birth.</p>\n<p>SDI may pay up to 52 weeks of benefits with a waiting period of only seven days. Payments are coordinated with any voluntary disability insurance coverage you may have.</p>\n<p>Payroll deductions for all covered workers are based on the same contribution rate, and are deducted automatically from your pay.</p>\n<p>California State Disability Insurance (SDI) information can be found at the California Employment Development Departments website. Follow the links for \"Disability Insurance\" to find out more.</p>\n<p>Contact the EDD to file a claim or get a claim form on the EDD website.</p>\n<p>Return to the Top</p>\n<h2>How Much Does Disability Insurance Cost?</h2>\n<ul>\n<li>Age The older you are, the more expensive your policy will be. It is possible to expect to pay higher than someone who purchased it younger.</li>\n</ul>\n<p>Age The older you are, the more expensive your policy will be. You can expect to pay more than someone who bought it at a younger age.</p>\n<ul>\n<li>Gender According to claims data, women have a higher likelihood of sustaining a disability. They also make more disability claims. Because of this, women pay more.</li>\n</ul>\n<p>Gender According to claims data, women have a higher likelihood of sustaining a disability. They also make more disability claims. Because of this, women pay more.</p>\n<ul>\n<li>Premiums are higher for smokers who have smoked in the past or those who smoke regularly.</li>\n</ul>\n<p>Premiums are higher for smokers who have smoked in the past or those who smoke regularly.</p>\n<ul>\n<li>State of residence Residents of states with a higher number of disability claims will pay more for coverage.</li>\n</ul>\n<p>State of residence Residents of states with a higher number of disability claims will pay more for coverage.</p>\n<ul>\n<li>Occupation class Depending on elements of your job (including manual duties, travel, and more) you may be classified as having a \"riskier\" occupation and pay more for your policy.</li>\n</ul>\n<p>Occupation class Depending on elements of your job (including manual duties, travel, and more) you may be classified as having a \"riskier\" occupation and pay more for your policy.</p>\n<p>The policy variables that influence costs also affect the cost of these services.</p>\n<ul>\n<li>Coverage amount The amount of money your insurer pays to you if you become disabled. Higher coverage amounts result in higher premiums.</li>\n</ul>\n<p>Coverage amount The amount of money your insurer pays to you if you become disabled. Higher coverage amounts result in higher premiums.</p>\n<ul>\n<li>Duration of benefit payment. Longer benefit periods result in higher premiums. The most cost-effective benefit period is five years, but a benefit period that extends to age 65 is the most common.</li>\n</ul>\n<p>Duration of benefit payment. Premiums will be higher if you have longer benefit periods. The most cost-effective benefit period is five years, but a benefit period that extends to age 65 is the most common.</p>\n<ul>\n<li>Elimination period How long after you become disabled before you begin receiving benefits. Premiums will be lower if you have longer elimination periods. The most cost-effective elimination period is 90 days.</li>\n</ul>\n<p>Elimination period How long after you become disabled before you begin receiving benefits. Longer elimination periods result in lower premiums. The most cost-effective elimination period is 90 days.</p>\n<ul>\n<li>Many features are built-in to the policy, such as own-occupation coverage. These features can increase the price of your policy.</li>\n</ul>\n<p>Built-in policy features Some features like own-occupation coverage may increase the cost of the policy.</p>\n<ul>\n<li>Riders If you add on additional features that aren't included in your policy, you will pay higher premiums.</li>\n</ul>\n<p>Riders You will be charged more for additional coverages that you don't have.</p>\n<h2><img loading=\"lazy\" src=\"https://www.investopedia.com/thmb/FYXCnwEiDDDTslPulpGlzDYAHcM=/1500x1000/filters:no_upscale():max_bytes(150000):strip_icc()/diinsurance_v3-bf77d05568264d77a7f79ec956ef3d82.png\" data-is-external-image=\"true\"  alt=\"Disability Insurance\" width=\"80%\" height=\"auto\"></h2>\n<h2>You Job Occupation</h2>\n<p>When assessing the risk of your disability, insurance companies take into account your work. Two reasons are why this is done.</p>\n<p>First of all, certain jobs are more prone to illness or injury than others. First, police officers, firefighters and construction workers are more susceptible to being injured while on the job than your average office worker.</p>\n<p>Insurers also consider how specific a job might be. Insurance companies may need to offer more benefits if a job is difficult or requires you to have certain conditions. An example of this is an office worker who falls in a chair may be able to return to work. A mechanic or plumber can also return to their regular job at some point.</p>\n<p>Insurance companies classify jobs based on the hazards of the work and the difficulty in returning to work. The job duties are what determine the occupation classification. Not the job title. If an individual has multiple or part-time occupations, the occupation classification will be determined by the occupation with the greatest risk.</p>\n<h2>All the information you need to apply</h2>\n<p>Be prepared to give information about your personal and professional life before you apply. We recommend you print and review the Adult Disability Checklist. This will allow you to gather all the necessary information for the application.</p>\n<h2><img loading=\"lazy\" src=\"https://img.freepik.com/free-vector/disability-insurance-template-social-media-post_53876-119137.jpg?w=2000\" data-is-external-image=\"true\"  alt=\"Disability Insurance\" width=\"80%\" height=\"auto\"></h2>\n<h2>Apply By Phone</h2>\n<p>To apply over the phone, call 1-800-665-3365, Monday to Friday from 8:00 am to 7:00 pm.</p>\n<h2>\"Own Job\" Definition For Short-Term Disability</h2>\n<p>Instead of using the \"own job\" standard for disability, we use the \"own job.\" This means that the worker was working at their job on the day of the disability.</p>\n<h2><img loading=\"lazy\" src=\"https://www.unum.com/-/media/Main/Images/Unum/Employees/Benefits/Disability/thegapIDIInfographic2x.ashx?sc_lang=en&amp;hash=B7EB2BD6E0A479F67E890A91646A8E7A\" data-is-external-image=\"true\"  alt=\"Disability Insurance\" width=\"80%\" height=\"auto\"></h2>\n<h2>Why Is Having Disability Insurance Important?</h2>\n<ul>\n<li>Rent or mortgage</li>\n<li>Auto payments</li>\n<li>Food</li>\n<li>Child care/tuition</li>\n<li>Utilities</li>\n</ul>\n<h2>Features Of Employer-Sponsored And Individual Disability Insurance</h2>\n<p>Disability insurance paid by the employer</p>\n<p>Individual disability insurance</p>\n<p>Easy to qualify</p>\n<p>Coverage is portable (moves with you to new jobs)</p>\n<p>You don't have to pay any premiums</p>\n<p>Benefits can be customized to fit your needs</p>\n<p>All insurance payouts are subject to tax</p>\n<p>Choice of insurance companies</p>\n<h2><img loading=\"lazy\" src=\"https://www.bls.gov/opub/btn/volume-4/images/disability-insurance-plans-chart1.png\" data-is-external-image=\"true\"  alt=\"Disability Insurance\" width=\"80%\" height=\"auto\"></h2>\n<h2>Short-Term Disability Insurance</h2>\n<p>Short-term disability insurance lasts only a few months, but you don't have to wait as long to start receiving benefits. You almost always get this type of plan through your employer.</p>\n<h2>Information for Advocates, Attorneys and Third Parties</h2>\n<p>There are some important things to know if you're an Advocate, Attorney or Third Party Representative who is helping somebody prepare an online Social Security Benefit application.</p>\n<h2><img loading=\"lazy\" src=\"https://www.paisabazaar.com/wp-content/uploads/2018/11/Disability-Insurance.jpg\" data-is-external-image=\"true\"  alt=\"Disability Insurance\" width=\"80%\" height=\"auto\"></h2>\n<h2>Temporary disability insurance (Tdi).</h2>\n<p>TDI pays benefit payments to employees in RI for unemployment that is caused by a temporary disability, injury or other reason. Enacted in 1942, TDI was the first of its kind in the United States. It protects workers against wage loss resulting from a non-work related illness or injury, and is funded exclusively by Rhode Island workers. Only New York, New Jersey and California, along with the commonwealth Puerto Rico have a TDI programme.</p>\n<h2>University Ltd Insurance</h2>\n<p>Not all enrollments are guaranteed</p>\n<ul>\n<li>within your first 60 days of active employment or</li>\n</ul>\n<p>You cannot request coverage for any other period. To review your application, you'll need to fill out a Statement of Medical Health.</p>\n<p>You can reapply anytime if you have been denied coverage. For assistance, contact University Payroll &amp; Benefits.</p>\n<h2><img loading=\"lazy\" src=\"https://blog.ssa.gov/wp-content/uploads/2016/12/DI-infographic.png\" data-is-external-image=\"true\"  alt=\"Disability Insurance\" width=\"80%\" height=\"auto\"></h2>\n<h2>Va Disability Compensation Benefits</h2>\n<ul>\n<li>Which conditions qualify you for benefits</li>\n</ul>\n<ul>\n<li>Which conditions qualify you for benefits</li>\n</ul>\n<p>What conditions are required to be eligible for benefits?</p>\n<ul>\n<li>What the claim process looks like</li>\n</ul>\n<ul>\n<li>What the claim process looks like</li>\n</ul>\n<p>What the claim process looks like</p>\n<p>In certain circumstances, survivors of veteran veterans might be eligible for compensation.</p>",
            "author": {
                "name": "Agent"
            },
            "tags": [
            ],
            "date_published": "2022-06-24T07:37:39-07:00",
            "date_modified": "2022-06-28T09:00:51-07:00"
        }
    ]
}
